<svg id="Шар_1" data-name="Шар 1" xmlns="http://www.w3.org/2000/svg" viewBox="0 0 522.47 62.78">
  <defs>
    <style>
      .cls-1 {
        fill: none;
      }

      .cls-2 {
        fill: #00a7ce;
      }

      .cls-3 {
        fill: #131f6b;
      }
    </style>
  </defs>
  <title>Softserve_logo</title>
  <rect class="cls-1" width="522.47" height="62.78"/>
  <g>
    <g>
      <g>
        <path class="cls-2" d="M-48,29c-4.94-1.93-9.21-3.6-9.21-7.44,0-4.44,4-6,7.83-6A14.41,14.41,0,0,1-39.3,19.19L-39,19.54-36,14.63l-0.18-.2c-0.17-.19-4.23-4.63-13-4.63-7,0-14.48,3.68-14.48,11.77,0,7.65,6.91,10.38,13,12.8,5,2,9.23,3.65,9.23,7.47,0,4.28-4,6.19-7.91,6.19a17.48,17.48,0,0,1-12-4.88l-0.3-.32-3.48,4.61,0.2,0.22a17.07,17.07,0,0,0,4,3.07,22.86,22.86,0,0,0,11.57,3c8.39,0,14.48-5,14.48-11.94C-35,34.08-41.88,31.38-48,29Z" transform="translate(68.07 7.46)"/>
        <path class="cls-2" d="M-6.09,9.79c-12.44,0-22.19,9.57-22.19,21.78A22,22,0,0,0-6.09,53.76,22,22,0,0,0,16.09,31.57C16.09,19.36,6.35,9.79-6.09,9.79ZM9.61,31.57C9.61,40.79,2.71,48-6.09,48S-21.8,40.79-21.8,31.57a15.66,15.66,0,0,1,15.71-16A15.66,15.66,0,0,1,9.61,31.57Z" transform="translate(68.07 7.46)"/>
        <path class="cls-2" d="M43.54-5.77a17.26,17.26,0,0,0-2.6-.17c-4.4,0-14.62,1.53-14.62,15.69v1.6H20.7v5.41h5.62v36h6.31v-36H43.19V11.35H32.62V9.75c0-3.72,1.16-10,8.89-10a10.71,10.71,0,0,1,1.9.16L43.85,0V-5.71Z" transform="translate(68.07 7.46)"/>
        <path class="cls-2" d="M73.32,47.69l-0.46.1a9.39,9.39,0,0,1-1.84.16c-3.39,0-9.07-1.39-9.07-10.74V16.87H72.48V11.36H62V-0.76H55.6V11.36H50v5.51h5.51V37.79c0,13.92,9.4,16,15,16A15.07,15.07,0,0,0,73,53.62l0.31-.06V47.69Z" transform="translate(68.07 7.46)"/>
      </g>
      <g>
        <path class="cls-3" d="M86.15,40.29A17.56,17.56,0,0,0,97.59,44.9c3,0,5.52-1.32,5.52-3.79,0-6.26-20.42-5.43-20.42-18.94,0-7.82,7-12.35,16.05-12.35,9.47,0,14.08,4.77,14.08,4.77L109,22.34a15.94,15.94,0,0,0-10.29-3.62c-2.72,0-5.35,1.15-5.35,3.79,0,5.93,20.42,5.19,20.42,18.69,0,7-6.09,12.6-16.05,12.6a23.5,23.5,0,0,1-16.3-6.17Z" transform="translate(68.07 7.46)"/>
        <path class="cls-3" d="M141.91,9.82c12.1,0,18.61,8.81,18.61,19.93,0,1.23-.25,4-0.25,4h-29c0.66,7.33,6.34,11.11,12.6,11.11,6.75,0,12.1-4.61,12.1-4.61l4,7.49a26.24,26.24,0,0,1-16.88,6c-13.91,0-22.56-10-22.56-22C120.59,18.88,129.4,9.82,141.91,9.82ZM150,26.62c-0.17-5.68-3.71-8.73-8.32-8.73-5.35,0-9.06,3.29-10,8.73H150Z" transform="translate(68.07 7.46)"/>
        <path class="cls-3" d="M171,10.81h10v7.25a28.73,28.73,0,0,1-.16,3h0.16c1.9-6,6.92-10.78,13.34-10.78a12,12,0,0,1,1.89.16V20.69a18,18,0,0,0-2.47-.17c-4.45,0-9.47,2.55-11.44,8.81a22.54,22.54,0,0,0-.9,6.83V52.8H171v-42Z" transform="translate(68.07 7.46)"/>
        <path class="cls-3" d="M200.87,10.81h11l8.73,26c0.82,2.47,1.4,5.26,1.48,5.26h0.17c0.08,0,.66-2.79,1.48-5.26l8.73-26h11l-15.07,42H216.1Z" transform="translate(68.07 7.46)"/>
        <path class="cls-3" d="M267.42,9.82c12.1,0,18.61,8.81,18.61,19.93,0,1.23-.25,4-0.25,4h-29c0.66,7.33,6.34,11.11,12.6,11.11,6.75,0,12.1-4.61,12.1-4.61l4,7.49a26.25,26.25,0,0,1-16.88,6c-13.91,0-22.56-10-22.56-22C246.1,18.88,254.91,9.82,267.42,9.82Zm8.07,16.8c-0.16-5.68-3.71-8.73-8.32-8.73-5.35,0-9.06,3.29-10,8.73h18.36Z" transform="translate(68.07 7.46)"/>
      </g>
    </g>
    <g>
      <g>
        <path class="cls-3" d="M309.52,10.45c-4.12,0-7,3-7,7.33a7.13,7.13,0,0,0,7.41,7.33,8.38,8.38,0,0,0,5.42-2l0,0L314.22,21l-0.07.07a6.59,6.59,0,0,1-4,1.59,4.44,4.44,0,0,1-4.68-4.41H315.5V18.18s0.08-.8.08-1.16C315.59,13,313.21,10.45,309.52,10.45Zm-0.05,2.27a3.17,3.17,0,0,1,3.26,3.37h-7.21A3.87,3.87,0,0,1,309.46,12.72Z" transform="translate(68.07 7.46)"/>
        <path class="cls-3" d="M326.47,17.59L331,10.78h-3.23L325.16,15c-0.16.27-.35,0.6-0.42,0.75-0.08-.15-0.26-0.48-0.43-0.75l-2.59-4.25h-3.23L323,17.59l-4.68,7.07-0.08.13h3.2l2.93-4.67c0.14-.24.29-0.54,0.37-0.68,0.07,0.14.23,0.44,0.37,0.68L328,24.79h3.2Z" transform="translate(68.07 7.46)"/>
        <path class="cls-3" d="M342,10.45a5.23,5.23,0,0,0-4.6,2.35c0-.19,0-0.47,0-0.77V10.78H334.8V30.26h2.81V24c0-.42,0-0.76,0-1a4.67,4.67,0,0,0,.88,1,5.08,5.08,0,0,0,3.31,1.16c3.74,0,6.35-3,6.35-7.33S345.65,10.45,342,10.45Zm3.31,7.36c0,2.87-1.61,4.88-3.92,4.88-2.52,0-3.83-2.44-3.83-4.85s1-4.9,3.92-4.9C343.74,12.94,345.28,14.9,345.28,17.81Z" transform="translate(68.07 7.46)"/>
        <path class="cls-3" d="M358.81,10.45c-4.12,0-7,3-7,7.33a7.13,7.13,0,0,0,7.41,7.33,8.39,8.39,0,0,0,5.42-2l0,0L363.51,21l-0.07.07a6.58,6.58,0,0,1-4.05,1.59,4.44,4.44,0,0,1-4.68-4.41h10.09V18.18s0.08-.8.08-1.16C364.88,13,362.5,10.45,358.81,10.45Zm-0.05,2.27A3.17,3.17,0,0,1,362,16.09H354.8A3.88,3.88,0,0,1,358.76,12.72Z" transform="translate(68.07 7.46)"/>
        <path class="cls-3" d="M377.1,10.67a4.85,4.85,0,0,0-.7-0.06,4.72,4.72,0,0,0-4.32,3.28c0-.17,0-0.39,0-0.62V10.78h-2.73v14h2.81V19a8.34,8.34,0,0,1,.32-2.47,4.14,4.14,0,0,1,3.81-3.2,3.88,3.88,0,0,1,.75.08l0.1,0V10.68H377.1Z" transform="translate(68.07 7.46)"/>
        <g>
          <rect class="cls-3" x="448.84" y="18.24" width="2.81" height="14.01"/>
          <rect class="cls-3" x="448.81" y="12.77" width="2.84" height="2.87"/>
        </g>
        <path class="cls-3" d="M395,10.45c-4.12,0-7,3-7,7.33a7.13,7.13,0,0,0,7.41,7.33,8.39,8.39,0,0,0,5.42-2l0,0L399.69,21l-0.07.07a6.59,6.59,0,0,1-4.05,1.59,4.44,4.44,0,0,1-4.68-4.41H401V18.18s0.08-.8.08-1.16C401.06,13,398.68,10.45,395,10.45Zm-0.06,2.27a3.17,3.17,0,0,1,3.25,3.37H391A3.88,3.88,0,0,1,394.94,12.72Z" transform="translate(68.07 7.46)"/>
        <path class="cls-3" d="M413.41,10.45a5.74,5.74,0,0,0-5.15,3c0-.19,0-0.45,0-0.73V10.78h-2.73v14h2.81V18.22a6.4,6.4,0,0,1,.22-1.84,4.44,4.44,0,0,1,4.3-3.34c2.24,0,2.55,1.63,2.55,3.4v8.35h2.81V15.84C418.25,12.21,416.66,10.45,413.41,10.45Z" transform="translate(68.07 7.46)"/>
        <path class="cls-3" d="M434.45,20.74l-0.07.08a6.25,6.25,0,0,1-4.21,1.83,4.7,4.7,0,0,1-4.82-4.9,4.64,4.64,0,0,1,4.74-4.85,5.56,5.56,0,0,1,3.77,1.56l0.07,0.07,1.35-2,0,0a7.57,7.57,0,0,0-12.76,5.28,7.17,7.17,0,0,0,7.5,7.33,7.74,7.74,0,0,0,5.59-2.24l0,0Z" transform="translate(68.07 7.46)"/>
        <path class="cls-3" d="M445.44,10.45c-4.12,0-7,3-7,7.33a7.13,7.13,0,0,0,7.41,7.33,8.41,8.41,0,0,0,5.42-2l0,0L450.14,21l-0.08.07A6.57,6.57,0,0,1,446,22.66a4.44,4.44,0,0,1-4.68-4.41h10.09V18.18s0.08-.8.08-1.16C451.51,13,449.13,10.45,445.44,10.45Zm-0.06,2.27a3.17,3.17,0,0,1,3.26,3.37h-7.21A3.88,3.88,0,0,1,445.39,12.72Z" transform="translate(68.07 7.46)"/>
      </g>
      <g>
        <path class="cls-3" d="M320,38.47a5.67,5.67,0,0,0-4.94,3.07c-0.51-2-1.92-3.07-4.2-3.07a5.49,5.49,0,0,0-4.71,2.94c0-.19,0-0.44,0-0.7V38.8h-2.73v14h2.81v-6.4a7.57,7.57,0,0,1,.16-1.78c0.58-2.18,2.1-3.58,3.89-3.58s2.33,1.36,2.33,3.4v8.37h2.81v-6.4a8.12,8.12,0,0,1,.19-1.9c0.45-1.73,1.8-3.47,3.81-3.47s2.38,1.63,2.38,3.4v8.37h2.81V43.86C324.67,40.23,323.15,38.47,320,38.47Z" transform="translate(68.07 7.46)"/>
        <path class="cls-3" d="M335,38.47a8.88,8.88,0,0,0-5.22,1.66l-0.05,0,1.17,2.08L331,42.2a7,7,0,0,1,3.81-1.32,2.62,2.62,0,0,1,3,3V44h-0.52c-5.59,0-8.42,1.63-8.42,4.84,0,2.82,2.41,4.29,4.79,4.29A4.9,4.9,0,0,0,338,50.6c0,0.2,0,.49,0,0.82v1.39h2.62V44C340.58,40.43,338.61,38.47,335,38.47Zm-0.85,12.37a2.24,2.24,0,0,1-2.52-2.14c0-2.28,3.16-2.55,5.53-2.55h0.6v0.36C337.79,49.1,335.93,50.84,334.18,50.84Z" transform="translate(68.07 7.46)"/>
        <path class="cls-3" d="M352.28,50.35a3.17,3.17,0,0,1-.61.05c-1.07,0-2.88-.4-2.88-3V41.29h3.34V39h-3.34V35h-2.73v4h-1.89v2.29H346v6.38c0,2,.7,5.25,5.39,5.25a7,7,0,0,0,.94-0.06h0.07V50.33Z" transform="translate(68.07 7.46)"/>
        <path class="cls-3" d="M363.55,50.35a3.14,3.14,0,0,1-.61.05c-1.07,0-2.88-.4-2.88-3V41.29h3.34V39h-3.34V35h-2.73v4h-1.89v2.29h1.81v6.38c0,2,.7,5.25,5.39,5.25a7,7,0,0,0,.94-0.06h0.07V50.33Z" transform="translate(68.07 7.46)"/>
        <path class="cls-3" d="M373.29,38.47c-4.12,0-7,3-7,7.33a7.13,7.13,0,0,0,7.41,7.33,8.4,8.4,0,0,0,5.42-2l0,0L378,49l-0.07.07a6.55,6.55,0,0,1-4,1.59,4.44,4.44,0,0,1-4.68-4.41h10.09V46.2s0.08-.8.08-1.16C379.37,41.05,377,38.47,373.29,38.47Zm-0.05,2.27a3.17,3.17,0,0,1,3.26,3.37h-7.21A3.88,3.88,0,0,1,373.24,40.74Z" transform="translate(68.07 7.46)"/>
        <path class="cls-3" d="M391.59,38.69a4.88,4.88,0,0,0-.7-0.06,4.72,4.72,0,0,0-4.32,3.28c0-.18,0-0.39,0-0.62V38.8h-2.73v14h2.81V47.06A8.25,8.25,0,0,1,387,44.6a4.13,4.13,0,0,1,3.81-3.2,3.84,3.84,0,0,1,.75.08l0.1,0V38.71h-0.07Z" transform="translate(68.07 7.46)"/>
        <path class="cls-3" d="M400.5,44.63c-1.46-.58-2.72-1.08-2.72-2.08,0-1.19,1.13-1.62,2.19-1.62a5,5,0,0,1,3.36,1.21l0.08,0.08,1.14-2.14,0,0A6.37,6.37,0,0,0,400,38.47c-3,0-5.09,1.62-5.09,4,0,2.63,2.32,3.57,4.36,4.39C400.76,47.48,402,48,402,49s-1.12,1.64-2.22,1.64a5.91,5.91,0,0,1-3.91-1.59L395.84,49l-1.38,2,0,0a7.59,7.59,0,0,0,5.31,2.05c3,0,5.09-1.69,5.09-4.1C404.9,46.37,402.46,45.4,400.5,44.63Z" transform="translate(68.07 7.46)"/>
      </g>
    </g>
  </g>
</svg>
